<svg xmlns="http://www.w3.org/2000/svg" viewBox="0 0 303.81 155.64">
  <g id="Layer_2" data-name="Layer 2">
    <g id="Layer_1-2" data-name="Layer 1">
      <path d="M303.25,136.08l-17.93,19.56h15.47l3-19.56ZM233.81,0c-25.48,0-51,7.28-68.88,16l21.84,50.68h.56l23.8-56.28c1.12-2.52,2-3.36,4.2-3.92a27.38,27.38,0,0,1,7.28-.84c16.52,0,27.44,14.84,27.44,45.92,0,24.92-7.84,43.4-27.16,71.68-6.47,9.44-14.25,19.92-24.57,32.44h9.89l3.76-2.48c50.4-32.48,89-59.92,89-100C301,22.12,278.33,0,233.81,0ZM84.75,21.39C32,21.39,0,52.14,0,111.89c0,16.93,2.6,31.52,7.52,43.75H54.36c-1.88-11.79-2.86-26.34-2.86-44,0-62,12-85.5,33.25-85.5S118,49.64,118,111.64c0,17.66-1,32.21-2.86,44H162c4.92-12.23,7.52-26.82,7.52-43.75C169.5,52.14,137.5,21.39,84.75,21.39Z" style="fill: #96a591"/>
    </g>
  </g>
</svg>
