<svg xmlns="http://www.w3.org/2000/svg" viewBox="0 0 451.06 638.08">
  <g id="Layer_2" data-name="Layer 2">
    <g id="Layer_1-2" data-name="Layer 1">
      <g>
        <path d="M313,559.83v-.7c36.75-7.7,59.49-24.5,59.49-59.14,0-37.8-33.59-60.55-83.29-60.55-31.5,0-63.7,9.1-85.4,19.95l27.3,63.34h.7l29.75-70c1.75-3.85,3.15-5.25,6.65-5.95a54.19,54.19,0,0,1,7.7-.35c20.3,0,34.65,19.95,34.65,51.1,0,34.29-14.7,57-48.65,64.39v.7c40.6,5.25,56,26.6,56,61.6a94.5,94.5,0,0,1-1,13.85h62.38a66.93,66.93,0,0,0,2.31-17.7C381.62,586.78,355,564,313,559.83Zm-84,50.75-11,27.5h22l-10.28-27.5ZM106.13,466.4C40.07,466.4,0,504.91,0,579.73c0,22.87,3.78,42.34,10.92,58.35H68.68c-2.76-15.36-4.19-34.73-4.19-58.66,0-77.65,15-107.08,41.64-107.08s41.64,29.43,41.64,107.08c0,23.93-1.43,43.3-4.18,58.66h57.76c7.14-16,10.92-35.48,10.92-58.35C212.27,504.91,172.19,466.4,106.13,466.4Z" style="fill: #f0f4f0"/>
        <path d="M433.14,70.24a31.86,31.86,0,0,1,17.92,24.25v-18a56.8,56.8,0,0,0-17.92-6.69Zm0,99.67a31.83,31.83,0,0,1,17.92,24.24v-18a56.56,56.56,0,0,0-17.92-6.68Zm-47,120.48c-1-1.41-.2-2.61,1-3.61L405.92,271v-.4l-31.42-11a16.44,16.44,0,0,0-6.6,13.61c0,14,13,22.42,27.22,25.82H369.5v44.43h.4l10-9.81c1.8-1.6,2.4-1.8,5-1.8h66.15V299H397.72C392.12,296,388.51,293.79,386.11,290.39Zm28.82-161.11h-.4v-60c-2.4-.2-3.8-.2-4.4-.2-32.22,0-42.23,22.62-42.23,43.83,0,26.62,14.81,50.24,51.83,50.24,13.15,0,23.51-3.32,31.33-8.8V106.23C448.71,119.12,437.75,129.28,414.93,129.28Zm-4,0c-29-.4-39.23-6-39.23-16,0-8.2,7-13.61,33.22-13.61.8,0,3.41,0,6,.2Zm-81.26,271v-3.41c0-3.6.6-4.6,3.21-6.2l46.63-31.22V359h-49a211.79,211.79,0,0,0-4.6,45.83c0,44.83,28.82,69.85,72.45,69.85,22.41,0,40.35-6,52.74-16.53V425.66c-10.92,5.08-28.55,7.62-54.94,7.62C356.09,433.28,329.67,424.87,329.67,400.26ZM373.5,24.62V0h-4V24.62H335.88V25L367.3,53c2.2,2,2.2,3,2.2,6.2v9h4v-11h69.25a44.47,44.47,0,0,0,8.31-.75V21.59c-2.43,1.95-6.06,3-10.71,3ZM414.93,229h-.4v-60c-2.4-.2-3.8-.2-4.4-.2-32.22,0-42.23,22.61-42.23,43.82,0,26.62,14.81,50.24,51.83,50.24,13.15,0,23.51-3.32,31.33-8.8V205.89C448.71,218.78,437.75,229,414.93,229Zm-4,0c-29-.4-39.23-6-39.23-16,0-8.2,7-13.6,33.22-13.6.8,0,3.41,0,6,.2Zm8.6,125.48-12.8-11.21h-.4v62.24h.4l12.8-11.21c2-1.6,2.41-1.8,5.61-1.8h25.92V356.23H425.14C421.94,356.23,421.54,356,419.53,354.43Z" style="fill: #f0f4f0"/>
      </g>
    </g>
  </g>
</svg>
