<svg xmlns="http://www.w3.org/2000/svg" viewBox="0 0 528.38 167.73">
  <g id="Layer_2" data-name="Layer 2">
    <g id="Layer_1-2" data-name="Layer 1">
      <g>
        <path d="M96.57,43.6h-.36L73,6.49c-1.44-2.35-2.34-2.89-5-2.89H49.36c-2.52,0-3.06.36-3.06,3.61V61.43H58.55c2.16-.18,2.88-.36,4.69-2.52L79.45,40.18h.36V86.12h-.36L63.24,67.38c-1.81-2-2.53-2.34-4.87-2.34H46.3v54.41c0,3.24.54,3.6,3.06,3.6H70.08c3.07,0,4.15-.36,5.41-2.52l22.34-38.2h.36v44.32H0v-.36l12.07-11.35c1.44-1.44,1.62-2,1.62-4.32V16c0-2.34-.18-2.88-1.62-4.32L0,.36V0H96.57Z" style="fill: #19191c"/>
        <path d="M184.48,111.88c1.8,2.52,3.24,4.14,5,6.31l7,8.1v.36H147.37v-.36l6.84-8.28c1.44-1.81,1.08-2.53-.18-4.51L140.16,93,129,106.84c-2,2.52-2.16,2.88-.54,5.4l9.19,14.05v.36H101.42v-.36l19.1-16a44.27,44.27,0,0,0,7.57-7.75l10.09-12.43-25-37.47a60.2,60.2,0,0,0-5.41-6.85l-6.67-7.93v-.36h49v.36l-6.85,8.47c-1.44,1.62-1.26,2.34.18,4.32l13.15,19.64,10.27-13c2-2.52,2.17-2.88.54-5.22l-9.18-14.24v-.36h36.39v.36l-19.28,16a52.11,52.11,0,0,0-7.57,7.74l-9.18,11.54Z" style="fill: #19191c"/>
        <path d="M202.31,51.35c0-2.35-.18-2.89-1.62-4.51l-8.83-9v-.36h39.82v19.1C237.8,42.34,247.53,36,259.6,36c20,0,34,16.94,34,44.14,0,29-16.39,47.92-38.19,47.92-13,0-20.54-5.22-23.78-13.69v39.28c0,2.34.18,2.88,2.7,4.5l13.33,9.19v.36H191.86v-.36l8.83-8.29c1.44-1.44,1.62-2,1.62-4.32Zm29.37,7.56v54.23c2.52,2.7,6.84,4.5,11.71,4.5,9.18,0,19.09-9.72,19.09-36,0-22-6.84-31.17-17.29-31.17C239.6,50.44,234.92,54.05,231.68,58.91Z" style="fill: #19191c"/>
        <path d="M329.32,78v.36c0,23.42,11.89,33,25.76,33,10.81,0,21.44-4.68,27.38-16.58h.36c-4.68,22.7-18.73,33.33-39.81,33.33-22.7,0-44.14-13.69-44.14-45.4,0-33.33,21.26-46.66,45.22-46.66,19.1,0,39.45,9,39.45,38,0,.54,0,1.8-.18,4Zm0-3.24H355.8c.18-2.35.18-4.69.18-5.41,0-23.6-4.87-29.9-12.25-29.9C334.72,39.46,329.68,48.64,329.32,74.77Z" style="fill: #19191c"/>
        <path d="M388.4,83.05c0-34.77,24.68-47,47.92-47,9.55,0,19.28,1.62,30.63,5.41l-11.53,31h-.36l-13.87-30.8c-.72-1.8-1.08-2.16-3.25-2.16H437c-11,0-17.11,11.71-17.11,34.95,0,27.56,12.07,36.75,24.32,36.75,9.55,0,17.3-5.41,22.16-14.77h.36c-3.06,19.45-15.67,31.7-36.39,31.7C408.94,128.09,388.4,113.68,388.4,83.05Z" style="fill: #19191c"/>
        <path d="M528.38,41.08H506.22v60.17c0,8.11,3.6,12.79,9.55,12.79,4.68,0,8.47-3.06,10.45-6.66l.36.18c-1.8,10.08-9.19,20.53-26.31,20.53-15.67,0-23.42-8.46-23.42-24.68V41.08H467V37.47h8.1c2.89,0,3.79,0,5.59-2L505.86,7.21h.36V37.47h22.16Z" style="fill: #19191c"/>
      </g>
    </g>
  </g>
</svg>
