<svg id="Layer_1" data-name="Layer 1" xmlns="http://www.w3.org/2000/svg" viewBox="0 0 788 611.2">
  <rect id="bg" width="788" height="611.2" style="fill: #e1e6dc"/>
  <g id="base">
    <g>
      <path d="M407.07,391.42l2.8-1.53a4.71,4.71,0,0,1,3.62-.56,4.68,4.68,0,0,1,3.17,5.79,4.71,4.71,0,0,1-2.42,2.75l-2.79,1.53Zm6.37,5.26a3.3,3.3,0,0,0,1.79-2.06,3.11,3.11,0,0,0-.33-2.3,3.07,3.07,0,0,0-1.76-1.51,3.25,3.25,0,0,0-2.7.4l-1.31.72,3,5.47Z" style="fill: #19191c"/>
      <path d="M424.06,392.49l-.29-.52a2.86,2.86,0,0,1-1.33,1.55,3,3,0,0,1-2,.31,3.39,3.39,0,0,1-2.48-4.52,3,3,0,0,1,1.37-1.52,2.86,2.86,0,0,1,2-.26l-.29-.51,1.24-.68,3,5.47ZM423,390.76l-1.07-1.93a2,2,0,0,0-1.74.06,1.81,1.81,0,0,0-.69,2.53,1.79,1.79,0,0,0,2.45.81A2,2,0,0,0,423,390.76Z" style="fill: #19191c"/>
      <path d="M423.44,382.1a1,1,0,0,1,1.29.38.94.94,0,0,1-1.65.9A1,1,0,0,1,423.44,382.1Zm3.88,8.6-3-5.47,1.31-.72,3,5.47Z" style="fill: #19191c"/>
      <path d="M426.22,380.77l1.31-.72,1.68,3.07a2.75,2.75,0,0,1,1.23-1.4,3,3,0,0,1,2-.34,3.39,3.39,0,0,1,2.48,4.51,2.92,2.92,0,0,1-3.34,1.79l.29.51-1.24.68Zm7.21,3a1.8,1.8,0,0,0-2.5-.78,2,2,0,0,0-1,1.43l1.07,1.94a2,2,0,0,0,1.8-.1A1.79,1.79,0,0,0,433.43,383.79Z" style="fill: #19191c"/>
      <path d="M441.39,379.84l-4,2.17a1.78,1.78,0,0,0,2.39.5,2.46,2.46,0,0,0,1.15-1.46l1.15.32a3.4,3.4,0,0,1-1.68,2.28,3.11,3.11,0,0,1-4.44-1.27,3,3,0,0,1,1.11-4.31,3,3,0,0,1,4.12,1.41A4,4,0,0,1,441.39,379.84Zm-3.71-.65A1.5,1.5,0,0,0,437,381l2.59-1.42A1.46,1.46,0,0,0,437.68,379.19Z" style="fill: #19191c"/>
      <path d="M443.47,381l.17-1.23a3,3,0,0,0,1.83-.31c.44-.25.71-.69.52-1-.32-.58-1.42,0-2.45,0a1.59,1.59,0,0,1-1.62-.81,2.12,2.12,0,0,1,1.14-2.82,3.32,3.32,0,0,1,2.14-.39l-.11,1.2a2.39,2.39,0,0,0-1.33.25c-.45.25-.74.66-.55,1s.87.13,1.63,0a2,2,0,0,1,2.46.83,2.17,2.17,0,0,1-1.2,2.85A3.89,3.89,0,0,1,443.47,381Z" style="fill: #19191c"/>
      <path d="M448.89,368.14a1,1,0,0,1,1.29.38.94.94,0,0,1-1.65.9A1,1,0,0,1,448.89,368.14Zm3.88,8.6-3-5.47,1.31-.72,3,5.47Z" style="fill: #19191c"/>
      <path d="M459.61,369.84l-4,2.17a1.76,1.76,0,0,0,2.39.5,2.45,2.45,0,0,0,1.14-1.46l1.15.32a3.39,3.39,0,0,1-1.68,2.29,3.11,3.11,0,0,1-4.43-1.28,3,3,0,1,1,5.23-2.9A3.92,3.92,0,0,1,459.61,369.84Zm-3.71-.65a1.51,1.51,0,0,0-.71,1.81l2.59-1.42A1.45,1.45,0,0,0,455.9,369.19Z" style="fill: #19191c"/>
      <path d="M458.13,363.27l1.31-.72,4.44,8.09-1.31.72Z" style="fill: #19191c"/>
      <path d="M469.87,367.35l-.28-.51a2.84,2.84,0,0,1-1.33,1.54,2.88,2.88,0,0,1-2,.31,3.39,3.39,0,0,1-2.47-4.51,3,3,0,0,1,1.37-1.53,2.9,2.9,0,0,1,2-.26l-.28-.51,1.23-.67,3,5.47Zm-1.05-1.72-1.06-1.94a2,2,0,0,0-1.74.07,1.8,1.8,0,0,0-.69,2.53,1.78,1.78,0,0,0,2.44.8A2,2,0,0,0,468.82,365.63Z" style="fill: #19191c"/>
    </g>
    <g>
      <path d="M83.61,411.89l.6,1.44-7.09,2.93,1.48,3.6-1.32.55-2.08-5.05Z" style="fill: #19191c"/>
      <path d="M77.9,421.9l5.77-2.38.57,1.38-5.77,2.38Zm9-2.9a1,1,0,0,1-.52,1.24.95.95,0,0,1-.72-1.75A1,1,0,0,1,86.87,419Z" style="fill: #19191c"/>
      <path d="M84,429.46l-1.73-4.18a1.77,1.77,0,0,0-.75,2.32,2.48,2.48,0,0,0,1.32,1.3L82.4,430a3.4,3.4,0,0,1-2.09-1.92,3.12,3.12,0,0,1,1.76-4.27,3,3,0,0,1,4.16,1.57,3,3,0,0,1-1.86,3.95Zm1.06-3.61a1.52,1.52,0,0,0-1.73-.91l1.13,2.73A1.47,1.47,0,0,0,85.06,425.85Z" style="fill: #19191c"/>
      <path d="M90.7,428.71l.57,1.38-8.54,3.53-.57-1.39Z" style="fill: #19191c"/>
      <path d="M85.34,439.94l.54-.23a2.91,2.91,0,0,1-1.39-1.49,3,3,0,0,1-.09-2,3.38,3.38,0,0,1,4.76-2,3,3,0,0,1,1.37,1.53,2.82,2.82,0,0,1,0,2l.54-.23.54,1.3-5.77,2.38Zm1.83-.86,2-.84a2,2,0,0,0,.13-1.74,1.89,1.89,0,0,0-3.51,1.38A2,2,0,0,0,87.17,439.08ZM91,433.91l1-.42,1.48,3.6-1,.42Z" style="fill: #19191c"/>
      <path d="M88.08,446.57l5.77-2.38.57,1.38L88.65,448Zm9-2.9a.94.94,0,1,1-1.74.72.94.94,0,0,1,1.74-.72Z" style="fill: #19191c"/>
      <path d="M94.19,454.13,92.46,450a1.78,1.78,0,0,0-.76,2.32,2.46,2.46,0,0,0,1.33,1.3l-.44,1.11a3.4,3.4,0,0,1-2.09-1.92,3.12,3.12,0,0,1,1.75-4.27,3,3,0,0,1,4.17,1.57A3,3,0,0,1,94.56,454Zm1-3.61a1.51,1.51,0,0,0-1.72-.91l1.12,2.73A1.45,1.45,0,0,0,95.24,450.52Z" style="fill: #19191c"/>
      <path d="M100.88,453.38l.57,1.38-8.53,3.53-.57-1.39Z" style="fill: #19191c"/>
      <path d="M95.53,464.61l.54-.23a2.87,2.87,0,0,1-1.39-1.49,3,3,0,0,1-.09-2,3.38,3.38,0,0,1,4.76-2,2.94,2.94,0,0,1,1.36,1.53,2.88,2.88,0,0,1,.05,2l.54-.23.53,1.3-5.76,2.38Zm1.83-.86,2-.84a2.09,2.09,0,0,0,.13-1.74,1.8,1.8,0,0,0-2.44-1A1.77,1.77,0,0,0,96,462.55,2,2,0,0,0,97.36,463.75Z" style="fill: #19191c"/>
    </g>
    <g>
      <polygon points="96.86 385.95 111.55 374.49 129.42 374.21 162.35 434.38 293.01 378.07 281.13 364.75 285.86 360.98 276.16 349.88 265.64 354.1 259.61 342.66 254.94 341.71 290.76 327.9 313.44 351.7 299.82 351.62 296.9 353.78 308.24 353.81 333.04 379.89 297.04 396.32 299.45 400.95 187.76 452.01 184.89 447.13 136.39 469.36 96.86 385.95" style="fill: none;stroke: #19191c;stroke-linejoin: bevel;stroke-width: 0.8px"/>
      <polyline points="111.55 374.49 148.06 445.67 177.82 432.53" style="fill: none;stroke: #19191c;stroke-miterlimit: 10;stroke-width: 0.8px"/>
      <polyline points="140.91 395.2 122.61 396.04 107.48 408.36 116.11 434.06" style="fill: none;stroke: #19191c;stroke-miterlimit: 10;stroke-width: 0.8px"/>
      <polyline points="153.51 418.22 134.86 419.94 119.07 432.81 128.51 460.21" style="fill: none;stroke: #19191c;stroke-miterlimit: 10;stroke-width: 0.8px"/>
      <polyline points="162.35 434.38 148.06 445.67 136.39 469.36 146.75 498.69" style="fill: none;stroke: #19191c;stroke-miterlimit: 10;stroke-width: 0.8px"/>
      <polyline points="187.76 452.01 179.92 434.79 174.63 429.08" style="fill: none;stroke: #19191c;stroke-miterlimit: 10;stroke-width: 0.8px"/>
      <line x1="290.73" y1="385.67" x2="179.92" y2="434.79" style="fill: none;stroke: #19191c;stroke-miterlimit: 10;stroke-width: 0.8px"/>
      <polyline points="283.18 382.31 290.73 385.67 297.04 396.32" style="fill: none;stroke: #19191c;stroke-miterlimit: 10;stroke-width: 0.8px"/>
      <polyline points="213.08 412.51 219.07 417.44 227.41 433.89 232.52 463.36" style="fill: none;stroke: #19191c;stroke-miterlimit: 10;stroke-width: 0.8px"/>
      <polyline points="249.16 396.96 255.76 401.17 264.23 417.06 267.84 446.2" style="fill: none;stroke: #19191c;stroke-miterlimit: 10;stroke-width: 0.8px"/>
      <polyline points="285.86 360.98 294.78 353.88 312.61 373.68 287.87 384.4" style="fill: none;stroke: #19191c;stroke-miterlimit: 10;stroke-width: 0.8px"/>
      <line x1="294.81" y1="353.77" x2="296.9" y2="353.78" style="fill: none;stroke: #19191c;stroke-miterlimit: 10;stroke-width: 0.8px"/>
      <polyline points="259.61 342.66 283.01 333.42 299.82 351.62" style="fill: none;stroke: #19191c;stroke-miterlimit: 10;stroke-width: 0.8px"/>
      <polygon points="163.82 379.25 168.35 384.17 172.78 392.8 189.84 385.74 192.89 389.63 227.52 375.52 221.62 364.75 216.92 361.06 183.93 374.08 181.8 372.1 163.82 379.25" style="fill: none;stroke: #19191c;stroke-miterlimit: 10;stroke-width: 0.8px"/>
      <polyline points="221.62 364.75 187.45 378.39 183.93 374.08 183.93 374.08" style="fill: none;stroke: #19191c;stroke-miterlimit: 10;stroke-width: 0.8px"/>
      <polyline points="168.35 384.17 185.73 377.36 189.84 385.74 193.36 401.15" style="fill: none;stroke: #19191c;stroke-miterlimit: 10;stroke-width: 0.8px"/>
      <polyline points="187.45 378.39 192.89 389.63 196.98 408.11" style="fill: none;stroke: #19191c;stroke-miterlimit: 10;stroke-width: 0.8px"/>
      <polyline points="222.96 367.19 236.2 361.81 241.27 365.21 247.32 375.7 230.15 383.03 226.11 376.1" style="fill: none;stroke: #19191c;stroke-miterlimit: 10;stroke-width: 0.8px"/>
      <line x1="225.44" y1="371.73" x2="241.27" y2="365.22" style="fill: none;stroke: #19191c;stroke-miterlimit: 10;stroke-width: 0.8px"/>
      <polyline points="96.86 385.95 105.85 412.42 146.75 498.69 152.13 496.17 153.45 498.85 178.7 486.49 177.84 483.82 192.35 476.85 194.99 481.59 301.4 429.9 301.07 425.03 333.32 409.24 333.25 380.21 312.61 373.68 293.01 378.07" style="fill: none;stroke: #19191c;stroke-miterlimit: 10;stroke-width: 0.8px"/>
      <line x1="184.89" y1="447.13" x2="192.35" y2="476.85" style="fill: none;stroke: #19191c;stroke-miterlimit: 10;stroke-width: 0.8px"/>
      <line x1="299.45" y1="400.95" x2="301.4" y2="429.9" style="fill: none;stroke: #19191c;stroke-miterlimit: 10;stroke-width: 0.8px"/>
      <line x1="282.66" y1="382.53" x2="281" y2="364.68" style="fill: none;stroke: #19191c;stroke-miterlimit: 10;stroke-width: 0.8px"/>
      <polyline points="254.92 341.63 258.94 371.15 268.73 383.08 278.97 378.68 276.16 349.88 283.01 333.42 290.76 327.9" style="fill: none;stroke: #19191c;stroke-miterlimit: 10;stroke-width: 0.8px"/>
      <line x1="265.64" y1="354.1" x2="268.73" y2="383.08" style="fill: none;stroke: #19191c;stroke-miterlimit: 10;stroke-width: 0.8px"/>
      <line x1="278.97" y1="378.68" x2="282.32" y2="382.52" style="fill: none;stroke: #19191c;stroke-miterlimit: 10;stroke-width: 0.8px"/>
      <line x1="313.44" y1="351.7" x2="313.71" y2="359.57" style="fill: none;stroke: #19191c;stroke-miterlimit: 10;stroke-width: 0.8px"/>
      <polyline points="163.63 379.07 168.08 395.62 177.05 410.81 189.13 405.69 184.76 387.84" style="fill: none;stroke: #19191c;stroke-miterlimit: 10;stroke-width: 0.8px"/>
      <polyline points="188.53 403.22 193.36 401.15 196.98 408.11 229.46 394.96 232.63 399.08 249.57 391.85 247.46 375.88" style="fill: none;stroke: #19191c;stroke-miterlimit: 10;stroke-width: 0.8px"/>
      <line x1="232.64" y1="399.08" x2="230.15" y2="383.03" style="fill: none;stroke: #19191c;stroke-miterlimit: 10;stroke-width: 0.8px"/>
      <line x1="229.46" y1="394.96" x2="226.45" y2="376.68" style="fill: none;stroke: #19191c;stroke-miterlimit: 10;stroke-width: 0.8px"/>
      <line x1="172.78" y1="392.8" x2="177.05" y2="410.81" style="fill: none;stroke: #19191c;stroke-miterlimit: 10;stroke-width: 0.8px"/>
      <polygon points="115.5 315.08 73.32 327.94 95.08 371.22 108.62 360.03 126.5 359.86 109.34 329.32 120.55 325.65 115.5 315.08" style="fill: none;stroke: #19191c;stroke-miterlimit: 10;stroke-width: 0.8px"/>
      <polyline points="73.32 327.94 84.5 356.43 97.83 385.19" style="fill: none;stroke: #19191c;stroke-miterlimit: 10;stroke-width: 0.8px"/>
      <line x1="95.09" y1="371.22" x2="99.56" y2="383.85" style="fill: none;stroke: #19191c;stroke-miterlimit: 10;stroke-width: 0.8px"/>
      <line x1="126.59" y1="360.05" x2="131.69" y2="378.35" style="fill: none;stroke: #19191c;stroke-miterlimit: 10;stroke-width: 0.8px"/>
      <polyline points="123.26 354.11 128.27 352.5 120.55 325.65" style="fill: none;stroke: #19191c;stroke-miterlimit: 10;stroke-width: 0.8px"/>
      <polyline points="108.62 360.03 89.06 323.14 109.34 329.32" style="fill: none;stroke: #19191c;stroke-miterlimit: 10;stroke-width: 0.8px"/>
      <polyline points="85.23 351.63 98.66 341.25 115.96 341.1" style="fill: none;stroke: #19191c;stroke-miterlimit: 10;stroke-width: 0.8px"/>
      <polygon points="145.72 331.18 149.11 333.14 155.89 346.69 288.82 298.49 271.73 281.4 261.86 279.29 253.45 288.25 257.7 292.58 145.72 331.18" style="fill: none;stroke: #19191c;stroke-miterlimit: 10;stroke-width: 0.8px"/>
      <polyline points="149.11 333.14 272.41 290.46 261.86 279.29" style="fill: none;stroke: #19191c;stroke-miterlimit: 10;stroke-width: 0.8px"/>
      <polyline points="179.1 319.68 182.95 321.42 189.48 334.51 195.22 362.65" style="fill: none;stroke: #19191c;stroke-miterlimit: 10;stroke-width: 0.8px"/>
      <polyline points="210.14 308.98 214.46 310.52 221.01 323.08 225.39 350.93" style="fill: none;stroke: #19191c;stroke-miterlimit: 10;stroke-width: 0.8px"/>
      <polyline points="239.19 298.96 244.34 300.18 251.04 312.19 254.56 339.59" style="fill: none;stroke: #19191c;stroke-miterlimit: 10;stroke-width: 0.8px"/>
      <polyline points="145.33 331.04 153.13 359.55 162.98 375.19 290.69 325.54 289.04 298.75 272.41 290.46 257.7 292.58" style="fill: none;stroke: #19191c;stroke-miterlimit: 10;stroke-width: 0.8px"/>
      <line x1="155.89" y1="346.69" x2="162.98" y2="375.19" style="fill: none;stroke: #19191c;stroke-miterlimit: 10;stroke-width: 0.8px"/>
      <polygon points="311.18 263.06 312.79 289.71 332.2 307.53 336.36 305.95 337.54 306.95 352.62 301.05 352.65 299.9 358.98 297.41 361.84 299.68 427.45 274.09 429.6 248.67 422.79 239 415.23 238.82 341.89 264.58 331.86 256.32 321.68 254.76 311.18 263.06" style="fill: none;stroke: #19191c;stroke-miterlimit: 10;stroke-width: 0.8px"/>
      <polyline points="311.18 263.06 331.37 280.93 359.43 270.81 362.39 272.96 429.6 248.67" style="fill: none;stroke: #19191c;stroke-miterlimit: 10;stroke-width: 0.8px"/>
      <polyline points="321.68 254.76 336.49 267.71 354.42 261.35 362.39 272.96 361.84 299.68" style="fill: none;stroke: #19191c;stroke-miterlimit: 10;stroke-width: 0.8px"/>
      <line x1="422.79" y1="238.99" x2="355.39" y2="262.77" style="fill: none;stroke: #19191c;stroke-miterlimit: 10;stroke-width: 0.8px"/>
      <polyline points="336.49 267.71 331.37 280.93 332.2 307.53" style="fill: none;stroke: #19191c;stroke-miterlimit: 10;stroke-width: 0.8px"/>
      <polyline points="349.32 261.97 354.42 261.35 359.43 270.81 358.98 297.41" style="fill: none;stroke: #19191c;stroke-miterlimit: 10;stroke-width: 0.8px"/>
      <polyline points="371.91 254.03 379.05 254.43 385.66 264.55 385.05 290.63" style="fill: none;stroke: #19191c;stroke-miterlimit: 10;stroke-width: 0.8px"/>
      <polyline points="393.33 246.51 401.33 246.56 408.07 256.45 406.31 282.33" style="fill: none;stroke: #19191c;stroke-miterlimit: 10;stroke-width: 0.8px"/>
      <polygon points="136.67 299.82 144.52 312.96 187.97 298.22 180.01 286.16 136.67 299.82" style="fill: none;stroke: #19191c;stroke-miterlimit: 10;stroke-width: 0.8px"/>
      <polyline points="136.53 299.59 140.22 316.64 146.86 326.59 190.33 311.31 188.11 298.4" style="fill: none;stroke: #19191c;stroke-miterlimit: 10;stroke-width: 0.8px"/>
      <line x1="144.52" y1="312.96" x2="146.86" y2="326.59" style="fill: none;stroke: #19191c;stroke-miterlimit: 10;stroke-width: 0.8px"/>
      <polyline points="158.98 292.79 166.73 305.42 169.41 318.67" style="fill: none;stroke: #19191c;stroke-miterlimit: 10;stroke-width: 0.8px"/>
      <polyline points="253.25 289.61 219.02 301.65 211.47 292.34 208.23 277.02 247.89 264.21 256.56 275.22 257.41 284.03" style="fill: none;stroke: #19191c;stroke-miterlimit: 10;stroke-width: 0.8px"/>
      <line x1="253.33" y1="288.18" x2="254.08" y2="293.83" style="fill: none;stroke: #19191c;stroke-miterlimit: 10;stroke-width: 0.8px"/>
      <polyline points="208.23 277.02 216.88 288.75 256.56 275.22" style="fill: none;stroke: #19191c;stroke-miterlimit: 10;stroke-width: 0.8px"/>
      <polyline points="228.94 270.32 237.53 281.71 239.23 294.53" style="fill: none;stroke: #19191c;stroke-miterlimit: 10;stroke-width: 0.8px"/>
      <line x1="216.88" y1="288.75" x2="219.02" y2="301.65" style="fill: none;stroke: #19191c;stroke-miterlimit: 10;stroke-width: 0.8px"/>
      <polyline points="481.9 277.12 486.09 282.33 474.62 286.94 468.56 278.85 460.86 277.61 471.27 273.18 478.77 274.71" style="fill: none;stroke: #19191c;stroke-miterlimit: 10;stroke-width: 0.8px"/>
      <polygon points="480.87 277.46 502.02 269.06 495.25 261.41 487.72 260.09 466.83 268.37 474.71 269.39 480.87 277.46" style="fill: none;stroke: #19191c;stroke-miterlimit: 10;stroke-width: 0.8px"/>
      <line x1="468.56" y1="278.85" x2="478.77" y2="274.71" style="fill: none;stroke: #19191c;stroke-miterlimit: 10;stroke-width: 0.8px"/>
      <polyline points="499.47 266.18 506.89 263.14 501.7 257.47 492.59 255.8 482.19 259.96 486.37 260.63" style="fill: none;stroke: #19191c;stroke-miterlimit: 10;stroke-width: 0.8px"/>
      <line x1="474.71" y1="269.39" x2="495.25" y2="261.41" style="fill: none;stroke: #19191c;stroke-miterlimit: 10;stroke-width: 0.8px"/>
      <line x1="501.7" y1="257.47" x2="492.85" y2="260.99" style="fill: none;stroke: #19191c;stroke-miterlimit: 10;stroke-width: 0.8px"/>
      <polyline points="460.13 277.74 458.88 292.35 472.8 301.65 484.61 296.35 486.24 282.32" style="fill: none;stroke: #19191c;stroke-miterlimit: 10;stroke-width: 0.8px"/>
      <line x1="474.68" y1="286.51" x2="472.8" y2="301.65" style="fill: none;stroke: #19191c;stroke-miterlimit: 10;stroke-width: 0.8px"/>
      <line x1="466.02" y1="268.49" x2="465.42" y2="275.67" style="fill: none;stroke: #19191c;stroke-miterlimit: 10;stroke-width: 0.8px"/>
      <polyline points="485.11 292.07 499.23 285.53 502.02 269.06" style="fill: none;stroke: #19191c;stroke-miterlimit: 10;stroke-width: 0.8px"/>
      <polyline points="507.06 263.15 504.54 278.79 500.05 280.72" style="fill: none;stroke: #19191c;stroke-miterlimit: 10;stroke-width: 0.8px"/>
      <polyline points="509.38 240.39 517.64 239.32 522.81 247.17 528.45 244.75 555.91 259.94 510.37 279.39 509.48 284.39 488.48 293.5 485.29 316.08 502.68 328.67 563.68 298.66 564.76 293.95 580.1 286.86 586.37 261.33 530.74 231.23 528.45 244.75" style="fill: none;stroke: #19191c;stroke-miterlimit: 10;stroke-width: 0.8px"/>
      <polyline points="530.62 231.05 509.38 240.39 505.8 261.95" style="fill: none;stroke: #19191c;stroke-miterlimit: 10;stroke-width: 0.8px"/>
      <polyline points="488.48 293.5 498.39 294.67 506.48 305.97 527.71 296.02 519.56 285.25 509.48 284.39" style="fill: none;stroke: #19191c;stroke-miterlimit: 10;stroke-width: 0.8px"/>
      <line x1="498.39" y1="294.67" x2="519.56" y2="285.25" style="fill: none;stroke: #19191c;stroke-miterlimit: 10;stroke-width: 0.8px"/>
      <polyline points="510.37 279.39 520.59 280.34 528.93 291.17 569.37 273.09 560.51 262.95 550.27 262.35" style="fill: none;stroke: #19191c;stroke-miterlimit: 10;stroke-width: 0.8px"/>
      <line x1="520.59" y1="280.34" x2="560.51" y2="262.95" style="fill: none;stroke: #19191c;stroke-miterlimit: 10;stroke-width: 0.8px"/>
      <line x1="506.48" y1="305.97" x2="502.68" y2="328.67" style="fill: none;stroke: #19191c;stroke-miterlimit: 10;stroke-width: 0.8px"/>
      <line x1="528.93" y1="291.17" x2="523.71" y2="318.32" style="fill: none;stroke: #19191c;stroke-miterlimit: 10;stroke-width: 0.8px"/>
      <polyline points="530.7 270.71 540.95 271.47 549.36 282.04 543.27 308.7" style="fill: none;stroke: #19191c;stroke-miterlimit: 10;stroke-width: 0.8px"/>
      <line x1="569.37" y1="273.09" x2="564.76" y2="293.95" style="fill: none;stroke: #19191c;stroke-miterlimit: 10;stroke-width: 0.8px"/>
      <polyline points="566.7 270.03 585.7 262.06 570.97 256.43 530.54 234.27 517.64 239.32" style="fill: none;stroke: #19191c;stroke-miterlimit: 10;stroke-width: 0.8px"/>
      <polyline points="555.91 259.94 570.97 256.43 556.48 262.71" style="fill: none;stroke: #19191c;stroke-miterlimit: 10;stroke-width: 0.8px"/>
      <polyline points="557.85 245.9 550.09 244.99 541.92 252.2 538.76 267.26" style="fill: none;stroke: #19191c;stroke-miterlimit: 10;stroke-width: 0.8px"/>
      <polyline points="522.81 247.17 518.08 272.94 506.47 265.91" style="fill: none;stroke: #19191c;stroke-miterlimit: 10;stroke-width: 0.8px"/>
      <line x1="481.19" y1="262.79" x2="481.49" y2="260.12" style="fill: none;stroke: #19191c;stroke-miterlimit: 10;stroke-width: 0.8px"/>
      <polyline points="518.15 273.09 523.81 270.32 528.45 244.75" style="fill: none;stroke: #19191c;stroke-miterlimit: 10;stroke-width: 0.8px"/>
      <line x1="523.81" y1="270.32" x2="527.02" y2="272.28" style="fill: none;stroke: #19191c;stroke-miterlimit: 10;stroke-width: 0.8px"/>
      <polyline points="672.02 212.36 626.64 232.17 634.15 241.52 679.98 220.83 672.02 212.36 661.46 212.55 611.22 234.42 583.88 220.94 589.43 218.96 583.7 211.43 575.5 212.46 555.52 219.48 611.52 248.06 630.51 239.34 624.4 231.21 617.01 231.9" style="fill: none;stroke: #19191c;stroke-miterlimit: 10;stroke-width: 0.8px"/>
      <line x1="626.64" y1="232.17" x2="624.96" y2="231.96" style="fill: none;stroke: #19191c;stroke-miterlimit: 10;stroke-width: 0.8px"/>
      <path d="M555.52,219.48c.92.08,15.83-3.39,15.83-3.39l41.25,20.48,11.8-5.36" style="fill: none;stroke: #19191c;stroke-miterlimit: 10;stroke-width: 0.8px"/>
      <polyline points="583.7 211.43 571.35 216.09 583.88 220.94" style="fill: none;stroke: #19191c;stroke-miterlimit: 10;stroke-width: 0.8px"/>
      <polyline points="597 227.41 591.23 225.97 583.04 233.52 577.6 256.59" style="fill: none;stroke: #19191c;stroke-miterlimit: 10;stroke-width: 0.8px"/>
      <polyline points="611.22 234.42 612.6 236.57 611.52 248.06 604.41 273.15 622.59 264.42 626.43 266.39 671.54 244.9 680.18 220.84" style="fill: none;stroke: #19191c;stroke-miterlimit: 10;stroke-width: 0.8px"/>
      <line x1="634.15" y1="241.52" x2="626.44" y2="266.39" style="fill: none;stroke: #19191c;stroke-miterlimit: 10;stroke-width: 0.8px"/>
      <line x1="604.14" y1="273.41" x2="586.06" y2="263.13" style="fill: none;stroke: #19191c;stroke-miterlimit: 10;stroke-width: 0.8px"/>
      <line x1="555.11" y1="219.46" x2="550.5" y2="241.93" style="fill: none;stroke: #19191c;stroke-miterlimit: 10;stroke-width: 0.8px"/>
      <line x1="630.51" y1="239.34" x2="622.59" y2="264.42" style="fill: none;stroke: #19191c;stroke-miterlimit: 10;stroke-width: 0.8px"/>
      <polyline points="631.79 225.47 642.4 225.29 650.21 234.27 642.01 258.97" style="fill: none;stroke: #19191c;stroke-miterlimit: 10;stroke-width: 0.8px"/>
      <polyline points="646.5 219.06 657.24 218.81 665.23 227.49 656.83 251.91" style="fill: none;stroke: #19191c;stroke-miterlimit: 10;stroke-width: 0.8px"/>
      <polyline points="673.68 238.95 678.78 241.25 692.97 234.47 701.65 210.89 693.84 202.83 683.17 203.22 669.11 209.41 680.26 208.8 687.74 217.11 701.65 210.89" style="fill: none;stroke: #19191c;stroke-miterlimit: 10;stroke-width: 0.8px"/>
      <line x1="680.26" y1="208.8" x2="693.84" y2="202.83" style="fill: none;stroke: #19191c;stroke-miterlimit: 10;stroke-width: 0.8px"/>
      <line x1="687.74" y1="217.11" x2="678.78" y2="241.25" style="fill: none;stroke: #19191c;stroke-miterlimit: 10;stroke-width: 0.8px"/>
      <line x1="668.22" y1="209.63" x2="667.42" y2="212.44" style="fill: none;stroke: #19191c;stroke-miterlimit: 10;stroke-width: 0.8px"/>
      <polyline points="656.44 214.74 652.59 213.31 648.08 215.32 635.96 209.69 642.57 186.88 657.64 181.12 712.55 202.98 703.99 226.16 694.52 230.25" style="fill: none;stroke: #19191c;stroke-miterlimit: 10;stroke-width: 0.8px"/>
      <polyline points="642.95 186.73 651.35 185.73 655.49 192.41 659.88 190.69 687.38 201.91 683.88 203.2" style="fill: none;stroke: #19191c;stroke-miterlimit: 10;stroke-width: 0.8px"/>
      <polyline points="651.35 185.73 659.72 182.04 659.88 190.69 652.59 213.31" style="fill: none;stroke: #19191c;stroke-miterlimit: 10;stroke-width: 0.8px"/>
      <polyline points="679.99 190.02 673.25 196.15 669.11 209.41" style="fill: none;stroke: #19191c;stroke-miterlimit: 10;stroke-width: 0.8px"/>
      <polyline points="687.38 201.91 700.74 198.28 689.82 202.98" style="fill: none;stroke: #19191c;stroke-miterlimit: 10;stroke-width: 0.8px"/>
      <line x1="699.51" y1="208.68" x2="712.55" y2="202.98" style="fill: none;stroke: #19191c;stroke-miterlimit: 10;stroke-width: 0.8px"/>
      <line x1="655.49" y1="192.41" x2="648.08" y2="215.32" style="fill: none;stroke: #19191c;stroke-miterlimit: 10;stroke-width: 0.8px"/>
      <polyline points="587.89 216.95 592.53 214.86 604.96 215.71 611.42 222.21 626.6 215.66 620.04 209.91 611.82 209.09 596.86 215.16" style="fill: none;stroke: #19191c;stroke-miterlimit: 10;stroke-width: 0.8px"/>
      <polyline points="594.15 219.07 601.65 215.68 606.69 220.6 598.88 224.07 594.15 219.07 589.43 218.96 588.55 223.25" style="fill: none;stroke: #19191c;stroke-miterlimit: 10;stroke-width: 0.8px"/>
      <polyline points="621.23 210.96 622.47 210.44 630.75 210.91 637.48 217.05 629.59 220.22 625.42 216.46 621.9 229.77" style="fill: none;stroke: #19191c;stroke-miterlimit: 10;stroke-width: 0.8px"/>
      <line x1="598.88" y1="224.07" x2="598.14" y2="227.97" style="fill: none;stroke: #19191c;stroke-miterlimit: 10;stroke-width: 0.8px"/>
      <line x1="606.69" y1="220.6" x2="604.34" y2="231.03" style="fill: none;stroke: #19191c;stroke-miterlimit: 10;stroke-width: 0.8px"/>
      <line x1="611.42" y1="222.21" x2="608.77" y2="233.22" style="fill: none;stroke: #19191c;stroke-miterlimit: 10;stroke-width: 0.8px"/>
      <line x1="629.59" y1="220.22" x2="627.77" y2="227.12" style="fill: none;stroke: #19191c;stroke-miterlimit: 10;stroke-width: 0.8px"/>
      <line x1="637.65" y1="217.06" x2="635.88" y2="223.69" style="fill: none;stroke: #19191c;stroke-miterlimit: 10;stroke-width: 0.8px"/>
      <line x1="604.96" y1="215.71" x2="620.04" y2="209.91" style="fill: none;stroke: #19191c;stroke-miterlimit: 10;stroke-width: 0.8px"/>
      <line x1="624.23" y1="213.58" x2="630.75" y2="210.91" style="fill: none;stroke: #19191c;stroke-miterlimit: 10;stroke-width: 0.8px"/>
      <polygon points="437.15 233.02 435.11 258.85 449.06 268.25 486.94 252.7 490.62 228.17 483.68 219.31 475.42 219.71 437.15 233.02" style="fill: none;stroke: #19191c;stroke-miterlimit: 10;stroke-width: 0.8px"/>
      <polyline points="437.15 233.02 444.93 233.2 451.7 242.64 490.62 228.17" style="fill: none;stroke: #19191c;stroke-miterlimit: 10;stroke-width: 0.8px"/>
      <line x1="444.93" y1="233.2" x2="483.68" y2="219.31" style="fill: none;stroke: #19191c;stroke-miterlimit: 10;stroke-width: 0.8px"/>
      <polyline points="456.71 226.22 464.56 226.26 471.38 235.33 468.15 260.19" style="fill: none;stroke: #19191c;stroke-miterlimit: 10;stroke-width: 0.8px"/>
      <line x1="449.06" y1="268.25" x2="451.7" y2="242.64" style="fill: none;stroke: #19191c;stroke-miterlimit: 10;stroke-width: 0.8px"/>
      <polyline points="469.03 221.93 470.02 211.06 477.5 204.54 485.07 206.36 507.58 219.11 504.24 242.77 487.51 248.89" style="fill: none;stroke: #19191c;stroke-miterlimit: 10;stroke-width: 0.8px"/>
      <line x1="507.58" y1="219.11" x2="488.97" y2="226.06" style="fill: none;stroke: #19191c;stroke-miterlimit: 10;stroke-width: 0.8px"/>
      <polyline points="476.61 205.32 493.98 214.78 481.05 219.44" style="fill: none;stroke: #19191c;stroke-miterlimit: 10;stroke-width: 0.8px"/>
      <polyline points="470.02 211.06 481.68 217.69 493.98 214.78 507.58 219.11" style="fill: none;stroke: #19191c;stroke-miterlimit: 10;stroke-width: 0.8px"/>
      <line x1="475.42" y1="219.71" x2="481.68" y2="217.69" style="fill: none;stroke: #19191c;stroke-miterlimit: 10;stroke-width: 0.8px"/>
      <polyline points="311.73 272.19 293.35 278.89 282.87 268.91 281.37 252.66 316.85 241.07 327.16 251.63 327.07 255.46" style="fill: none;stroke: #19191c;stroke-miterlimit: 10;stroke-width: 0.8px"/>
      <line x1="281.37" y1="252.66" x2="292.27" y2="263.67" style="fill: none;stroke: #19191c;stroke-miterlimit: 10;stroke-width: 0.8px"/>
      <polyline points="293.35 278.89 292.27 263.67 327.16 251.63" style="fill: none;stroke: #19191c;stroke-miterlimit: 10;stroke-width: 0.8px"/>
      <polyline points="299.75 246.66 309.87 257.35 310.43 272.7" style="fill: none;stroke: #19191c;stroke-miterlimit: 10;stroke-width: 0.8px"/>
      <polyline points="512.09 177.48 487.52 185.18 531.7 207.48 551.98 200.98 546.22 193.79 539.93 194.62 534.48 196.6 512.58 185.86 532.73 179.64 526.21 172.09 517.35 172.93 503.25 177.27 502.98 180.34" style="fill: none;stroke: #19191c;stroke-miterlimit: 10;stroke-width: 0.8px"/>
      <polyline points="503.25 177.27 511.63 176.81 517.59 184.32" style="fill: none;stroke: #19191c;stroke-miterlimit: 10;stroke-width: 0.8px"/>
      <line x1="511.63" y1="176.81" x2="526.21" y2="172.09" style="fill: none;stroke: #19191c;stroke-miterlimit: 10;stroke-width: 0.8px"/>
      <polyline points="500.11 181.23 534.06 197.83 546.22 193.79" style="fill: none;stroke: #19191c;stroke-miterlimit: 10;stroke-width: 0.8px"/>
      <line x1="534.48" y1="196.6" x2="534.06" y2="197.83" style="fill: none;stroke: #19191c;stroke-miterlimit: 10;stroke-width: 0.8px"/>
      <line x1="512.58" y1="185.86" x2="500.53" y2="181.44" style="fill: none;stroke: #19191c;stroke-miterlimit: 10;stroke-width: 0.8px"/>
      <polyline points="517.35 172.93 517.38 171.7 536.41 165.75 551.39 171.5 555.45 173.83 552.52 189.98" style="fill: none;stroke: #19191c;stroke-miterlimit: 10;stroke-width: 0.8px"/>
      <polyline points="517.38 171.7 523.86 170.97 525 172.48" style="fill: none;stroke: #19191c;stroke-miterlimit: 10;stroke-width: 0.8px"/>
      <polyline points="531.19 177.85 539.97 174.94 538.14 166.55 523.86 170.97" style="fill: none;stroke: #19191c;stroke-miterlimit: 10;stroke-width: 0.8px"/>
      <path d="M551.39,171.51c0,.7-5.7,5.91-5.7,5.91l-2.94,16.83" style="fill: none;stroke: #19191c;stroke-miterlimit: 10;stroke-width: 0.8px"/>
      <polyline points="545.69 177.42 539.97 174.94 536.24 195.96" style="fill: none;stroke: #19191c;stroke-miterlimit: 10;stroke-width: 0.8px"/>
      <line x1="532.73" y1="179.64" x2="530.45" y2="194.63" style="fill: none;stroke: #19191c;stroke-miterlimit: 10;stroke-width: 0.8px"/>
      <line x1="487.52" y1="185.18" x2="485.07" y2="206.36" style="fill: none;stroke: #19191c;stroke-miterlimit: 10;stroke-width: 0.8px"/>
      <polyline points="507.39 220.46 527.19 231.29 547.01 223.74 551.98 200.98" style="fill: none;stroke: #19191c;stroke-miterlimit: 10;stroke-width: 0.8px"/>
      <line x1="531.7" y1="207.48" x2="527.19" y2="231.29" style="fill: none;stroke: #19191c;stroke-miterlimit: 10;stroke-width: 0.8px"/>
      <polyline points="549.25 197.57 550.66 190.32 565.6 185.45 574.03 184.73 580.78 192.35 576.14 212.38" style="fill: none;stroke: #19191c;stroke-miterlimit: 10;stroke-width: 0.8px"/>
      <line x1="548.84" y1="215.36" x2="556.67" y2="219.16" style="fill: none;stroke: #19191c;stroke-miterlimit: 10;stroke-width: 0.8px"/>
      <path d="M550.66,190.32l8.65-.48,37.35-13s9.3-1.13,9-1.14,6.38,7.2,6.38,7.2l-6,22.48-20.78,8.11" style="fill: none;stroke: #19191c;stroke-miterlimit: 10;stroke-width: 0.8px"/>
      <polyline points="559.31 189.84 565.65 197.95 580.78 192.35" style="fill: none;stroke: #19191c;stroke-miterlimit: 10;stroke-width: 0.8px"/>
      <polyline points="612.03 182.86 583.55 193.65 576.76 185.71 605.65 175.66" style="fill: none;stroke: #19191c;stroke-miterlimit: 10;stroke-width: 0.8px"/>
      <line x1="583.55" y1="193.65" x2="579.34" y2="212.03" style="fill: none;stroke: #19191c;stroke-miterlimit: 10;stroke-width: 0.8px"/>
      <line x1="576.76" y1="185.71" x2="574.86" y2="185.67" style="fill: none;stroke: #19191c;stroke-miterlimit: 10;stroke-width: 0.8px"/>
      <line x1="565.65" y1="197.95" x2="561.52" y2="217.37" style="fill: none;stroke: #19191c;stroke-miterlimit: 10;stroke-width: 0.8px"/>
      <polyline points="584.06 181.21 591.21 180.69 597.93 188.2 592.23 210.72" style="fill: none;stroke: #19191c;stroke-miterlimit: 10;stroke-width: 0.8px"/>
      <polyline points="547.37 169.96 548.89 160.75 566.89 155.13 575.04 154.09 561.3 158.29 573 162.77 577.57 165.84 573.46 184.72" style="fill: none;stroke: #19191c;stroke-miterlimit: 10;stroke-width: 0.8px"/>
      <polyline points="564.49 185.81 567.88 168.96 548.89 160.75" style="fill: none;stroke: #19191c;stroke-miterlimit: 10;stroke-width: 0.8px"/>
      <line x1="567.88" y1="168.96" x2="573" y2="162.77" style="fill: none;stroke: #19191c;stroke-miterlimit: 10;stroke-width: 0.8px"/>
      <line x1="561.3" y1="158.29" x2="549.37" y2="160.77" style="fill: none;stroke: #19191c;stroke-miterlimit: 10;stroke-width: 0.8px"/>
      <polyline points="609.07 193.92 625.01 200.68 635.65 196.04 641.52 174.68 637.71 171.78 585.75 151.52 574.97 154.73 580.55 160.91 584.57 159.31 630.87 178.08 637.71 171.78" style="fill: none;stroke: #19191c;stroke-miterlimit: 10;stroke-width: 0.8px"/>
      <polyline points="576.13 154.39 580.55 160.91 576.12 182.56 573.72 183.51" style="fill: none;stroke: #19191c;stroke-miterlimit: 10;stroke-width: 0.8px"/>
      <line x1="580.55" y1="160.91" x2="574.02" y2="163.46" style="fill: none;stroke: #19191c;stroke-miterlimit: 10;stroke-width: 0.8px"/>
      <line x1="630.87" y1="178.08" x2="625.01" y2="200.68" style="fill: none;stroke: #19191c;stroke-miterlimit: 10;stroke-width: 0.8px"/>
      <polyline points="619.99 164.87 613.09 170.87 610.44 181.14" style="fill: none;stroke: #19191c;stroke-miterlimit: 10;stroke-width: 0.8px"/>
      <polyline points="602.5 158.05 595.88 163.89 592.3 178.32" style="fill: none;stroke: #19191c;stroke-miterlimit: 10;stroke-width: 0.8px"/>
      <polyline points="585.75 151.52 584.57 159.31 579.8 181.18 576.12 182.56" style="fill: none;stroke: #19191c;stroke-miterlimit: 10;stroke-width: 0.8px"/>
      <line x1="579.8" y1="181.18" x2="581.94" y2="181.94" style="fill: none;stroke: #19191c;stroke-miterlimit: 10;stroke-width: 0.8px"/>
      <line x1="467.6" y1="201.79" x2="485.63" y2="195.76" style="fill: none;stroke: #19191c;stroke-miterlimit: 10;stroke-width: 0.8px"/>
      <line x1="324.99" y1="249.48" x2="344.01" y2="243.12" style="fill: none;stroke: #19191c;stroke-miterlimit: 10;stroke-width: 0.8px"/>
      <line x1="254.78" y1="272.96" x2="282.11" y2="263.82" style="fill: none;stroke: #19191c;stroke-miterlimit: 10;stroke-width: 0.8px"/>
      <line x1="186.41" y1="295.83" x2="210.5" y2="287.77" style="fill: none;stroke: #19191c;stroke-miterlimit: 10;stroke-width: 0.8px"/>
      <line x1="117.34" y1="318.93" x2="139.14" y2="311.64" style="fill: none;stroke: #19191c;stroke-miterlimit: 10;stroke-width: 0.8px"/>
      <path d="M707.78,216.73l15.56,6.62a17.4,17.4,0,0,1,1.27,31.42L139.89,561.62A17.39,17.39,0,0,1,115.78,553l-79-187.35a17.39,17.39,0,0,1,10.51-23.26l28-9.37" style="fill: none;stroke: #19191c;stroke-miterlimit: 10;stroke-width: 0.8px"/>
      <line x1="385.3" y1="241.64" x2="392.53" y2="246.79" style="fill: none;stroke: #19191c;stroke-miterlimit: 10;stroke-width: 0.8px"/>
      <polyline points="384.18 224.39 391 224.53 396.38 233 471.18 208.07 465.72 200.05 458.24 200.88 384.18 224.39 383.98 232.98" style="fill: none;stroke: #19191c;stroke-miterlimit: 10;stroke-width: 0.8px"/>
      <line x1="471.25" y1="209.98" x2="471.34" y2="208.23" style="fill: none;stroke: #19191c;stroke-miterlimit: 10;stroke-width: 0.8px"/>
      <line x1="423.43" y1="239.91" x2="436.98" y2="235.24" style="fill: none;stroke: #19191c;stroke-miterlimit: 10;stroke-width: 0.8px"/>
      <line x1="396.38" y1="233" x2="396.08" y2="245.54" style="fill: none;stroke: #19191c;stroke-miterlimit: 10;stroke-width: 0.8px"/>
      <line x1="391.01" y1="224.53" x2="465.72" y2="200.05" style="fill: none;stroke: #19191c;stroke-miterlimit: 10;stroke-width: 0.8px"/>
      <polyline points="403.54 218.25 410.41 218.17 416.32 226.35 415.77 238.83" style="fill: none;stroke: #19191c;stroke-miterlimit: 10;stroke-width: 0.8px"/>
      <polyline points="422.43 212.15 429.37 211.96 435.4 219.99 434.19 236.2" style="fill: none;stroke: #19191c;stroke-miterlimit: 10;stroke-width: 0.8px"/>
      <polyline points="441.24 206.28 447.64 205.97 453.38 214 452.33 227.74" style="fill: none;stroke: #19191c;stroke-miterlimit: 10;stroke-width: 0.8px"/>
      <g>
        <polygon points="354.82 256.75 385.2 245.93 385.47 234.6 375.43 224.93 343.83 233.86 344.12 248.68 354.82 256.75" style="fill: none;stroke: #19191c;stroke-miterlimit: 10;stroke-width: 0.8px"/>
        <polyline points="359.62 229.18 370.49 239.39 370.5 251.16 354.82 256.75 355.01 244.33 343.83 233.86 355.01 244.33 385.47 234.6" style="fill: none;stroke: #19191c;stroke-miterlimit: 10;stroke-width: 0.8px"/>
      </g>
      <line x1="385.64" y1="241.88" x2="392.2" y2="246.55" style="fill: none;stroke: #19191c;stroke-miterlimit: 10;stroke-width: 0.8px"/>
    </g>
  </g>

  <g id="number-1">
    <circle cx="200.5" cy="180.14" r="21.51" style="fill: none;stroke: #19191c;stroke-miterlimit: 10;stroke-width: 0.8px"/>
    <g>
      <path d="M202.17,179.91a5.08,5.08,0,1,1-5.08-5.14A5,5,0,0,1,202.17,179.91Zm-1.72,0a3.37,3.37,0,1,0-3.36,3.58A3.41,3.41,0,0,0,200.45,179.91Z" style="fill: #19191c"/>
      <path d="M205.74,176.94l-1.93,1V176.3l2.44-1.39h1.21v10h-1.72Z" style="fill: #19191c"/>
    </g>
    <line x1="200.5" y1="201.65" x2="200.5" y2="312.3" style="fill: none;stroke: #19191c;stroke-miterlimit: 10;stroke-width: 0.8px"/>
  </g>

  <g id="number-2">
    <circle cx="396.38" cy="91.78" r="21.51" style="fill: none;stroke: #19191c;stroke-miterlimit: 10;stroke-width: 0.8px"/>
    <g>
      <path d="M396.66,91.55a5.08,5.08,0,1,1-5.07-5.14A5,5,0,0,1,396.66,91.55Zm-1.71,0a3.37,3.37,0,1,0-3.36,3.58A3.41,3.41,0,0,0,395,91.55Z" style="fill: #19191c"/>
      <path d="M405.29,96.56h-6.65V95.49l3.49-3.31a3.29,3.29,0,0,0,1.37-2.48,1.66,1.66,0,1,0-3.32,0,2.7,2.7,0,0,0,.19,1l-1.45.65a3.33,3.33,0,1,1,6.3-1.57c0,1.12-.43,2.24-1.93,3.63L401.5,95h3.79Z" style="fill: #19191c"/>
    </g>
    <line x1="396.38" y1="113.29" x2="396.38" y2="237.04" style="fill: none;stroke: #19191c;stroke-miterlimit: 10;stroke-width: 0.8px"/>
  </g>
  <g id="number-3">
    <circle cx="585.7" cy="62.97" r="21.51" style="fill: none;stroke: #19191c;stroke-miterlimit: 10;stroke-width: 0.8px"/>
    <g>
      <path d="M586.18,62.75a5.08,5.08,0,1,1-5.07-5.15A5,5,0,0,1,586.18,62.75Zm-1.72,0a3.36,3.36,0,1,0-3.35,3.57A3.41,3.41,0,0,0,584.46,62.75Z" style="fill: #19191c"/>
      <path d="M590.83,61.6a1.69,1.69,0,0,0,1.36-.44,1.18,1.18,0,0,0,.27-.74,1.25,1.25,0,0,0-1.32-1.25,1.88,1.88,0,0,0-1.58,1l-1.32-.73a3.33,3.33,0,0,1,3-1.8,2.76,2.76,0,0,1,2.93,2.65,2.41,2.41,0,0,1-1.08,2,2.8,2.8,0,0,1,1.37,2.52,3.07,3.07,0,0,1-3.29,3.08,3.76,3.76,0,0,1-3.57-2.23L589,65a2.2,2.2,0,0,0,2.06,1.33,1.62,1.62,0,0,0,1.69-1.61,1.54,1.54,0,0,0-.45-1.12,2,2,0,0,0-1.47-.48h-.52V61.6Z" style="fill: #19191c"/>
    </g>
    <line x1="585.7" y1="84.48" x2="585.7" y2="151.52" style="fill: none;stroke: #19191c;stroke-miterlimit: 10;stroke-width: 0.8px"/>
  </g>
</svg>
