<?xml version="1.0" encoding="utf-8"?>
<!-- Generator: Adobe Illustrator 25.2.3, SVG Export Plug-In . SVG Version: 6.00 Build 0)  -->
<svg version="1.1" id="Layer_1" xmlns="http://www.w3.org/2000/svg" xmlns:xlink="http://www.w3.org/1999/xlink" x="0px" y="0px"
	 viewBox="0 0 283.5 283.5" style="enable-background:new 0 0 283.5 283.5;" xml:space="preserve">
<style type="text/css">
	.st0{fill:#FFFFFF;}
	.st1{fill:#565655;}
	.st2{fill:#9C9C9C;}
	.st3{fill:#E5007D;}
	.st4{fill:none;}
</style>
<path class="st0" d="M140.6,238.8c-53.9,0-97.6-43.7-97.6-97.7c0-53.9,43.7-97.6,97.7-97.6c53.9,0,97.6,43.7,97.6,97.6
	C238.2,195,194.5,238.7,140.6,238.8z M140.6,45.5C87.8,45.5,45,88.3,45,141.1s42.8,95.6,95.7,95.6s95.6-42.8,95.6-95.6c0,0,0,0,0,0
	C236.2,88.3,193.4,45.5,140.6,45.5L140.6,45.5z"/>
<path class="st0" d="M66.4,240.3l-1.4-1.2l5.7-7l-3.5-2.9l1.1-1.3l5,4.1L66.4,240.3z"/>
<path class="st0" d="M56.4,231.7l-5-5l1.2-1.2l3.7,3.7l1.9-1.9l-3.5-3.5l1.1-1.1l3.5,3.5l2.1-2.2l-3.9-3.9l1.2-1.2l5.2,5.2
	L56.4,231.7z"/>
<path class="st0" d="M44.2,218.3l-1-1.3l5.7-10.2l1.3,1.7l-1.3,2.3l2.8,3.7l2.5-0.7l1.3,1.7L44.2,218.3z M48,212.3l-2.4,4l4.5-1.3
	L48,212.3z"/>
<path class="st0" d="M36.7,207.7l-1.9-3.3c-0.4-0.6-0.6-1.3-0.8-2c-0.2-0.7-0.3-1.4-0.2-2.1c0.1-0.7,0.3-1.4,0.8-2
	c0.5-0.7,1.2-1.3,1.9-1.7c0.7-0.4,1.5-0.7,2.4-0.8c0.7,0,1.5,0.1,2.1,0.4c0.7,0.3,1.3,0.7,1.8,1.2c0.5,0.5,1,1.1,1.3,1.7l1.9,3.3
	L36.7,207.7z M42.8,200.1c-0.2-0.4-0.5-0.8-0.8-1.2c-0.3-0.4-0.7-0.7-1.2-0.9c-0.5-0.2-1-0.3-1.5-0.3c-0.6,0-1.2,0.2-1.8,0.6
	c-0.6,0.3-1.1,0.7-1.4,1.3c-0.3,0.4-0.5,0.9-0.5,1.4c0,0.5,0,1,0.2,1.4c0.2,0.5,0.4,0.9,0.6,1.4l0.8,1.4l6.4-3.7L42.8,200.1z"/>
<path class="st0" d="M28.7,192.5l-2.7-6.6l1.5-0.6l2,4.8l2.5-1l-1.9-4.6l1.5-0.6l1.9,4.6l2.8-1.1l-2.1-5.1l1.6-0.6l2.8,6.8
	L28.7,192.5z"/>
<path class="st0" d="M23.5,178.7l-1-3.6c-0.1-0.5-0.2-1-0.2-1.5c0-0.5,0-0.9,0.2-1.4c0.1-0.4,0.4-0.8,0.7-1.1
	c0.4-0.3,0.8-0.6,1.3-0.7c0.7-0.2,1.4-0.2,2,0.1c0.6,0.3,1.1,0.8,1.4,1.4l3.8-4l0.6,2.2l-3.7,3.6l0.4,1.3l4.4-1.2l0.5,1.8
	L23.5,178.7z M27.1,174.1c-0.1-0.3-0.2-0.5-0.3-0.8c-0.1-0.2-0.2-0.5-0.4-0.6c-0.2-0.2-0.4-0.3-0.6-0.4c-0.3-0.1-0.6-0.1-0.8,0
	c-0.2,0.1-0.5,0.2-0.6,0.4c-0.1,0.2-0.2,0.4-0.3,0.6c0,0.2,0,0.5,0,0.7c0,0.3,0.1,0.5,0.1,0.7l0.5,1.7l2.9-0.8L27.1,174.1z"/>
<path class="st0" d="M21.4,158.3c-0.2,0.3-0.4,0.6-0.5,0.9c-0.1,0.4-0.2,0.8-0.1,1.1c0,0.2,0.1,0.4,0.2,0.6c0.1,0.2,0.2,0.4,0.4,0.6
	c0.1,0.2,0.3,0.3,0.5,0.4c0.4,0.2,0.9,0.1,1.3-0.2c0.2-0.1,0.3-0.3,0.4-0.5c0.1-0.2,0.2-0.5,0.2-0.7c0-0.3,0.1-0.6,0.1-0.9
	s0.1-0.7,0.2-1.1c0.1-0.4,0.2-0.7,0.4-1.1c0.2-0.3,0.4-0.6,0.8-0.9c0.4-0.3,0.8-0.4,1.3-0.5c0.5-0.1,1-0.1,1.5,0.1
	c0.4,0.1,0.8,0.4,1.2,0.7c0.3,0.3,0.6,0.7,0.8,1.1c0.2,0.5,0.4,0.9,0.4,1.4c0.1,0.7,0.1,1.4-0.1,2.1c-0.1,0.7-0.4,1.3-0.9,1.8
	l-1.5-1.1c0.3-0.3,0.6-0.7,0.7-1.2c0.1-0.4,0.2-0.9,0.1-1.3c0-0.2-0.1-0.4-0.2-0.7c-0.1-0.2-0.2-0.4-0.4-0.6
	c-0.2-0.2-0.3-0.3-0.5-0.4c-0.2-0.1-0.5-0.1-0.8-0.1c-0.2,0-0.5,0.1-0.7,0.3c-0.2,0.2-0.3,0.4-0.4,0.6c-0.1,0.3-0.2,0.5-0.2,0.8
	c-0.1,0.3-0.1,0.7-0.2,1c-0.1,0.3-0.1,0.7-0.2,1c-0.1,0.3-0.2,0.7-0.4,0.9c-0.2,0.3-0.5,0.6-0.8,0.8c-0.4,0.2-0.8,0.4-1.2,0.4
	c-0.5,0.1-1,0-1.5-0.1c-0.4-0.2-0.8-0.4-1.1-0.7c-0.3-0.3-0.6-0.7-0.8-1.2c-0.2-0.4-0.3-0.9-0.4-1.4c-0.1-0.6-0.1-1.1,0-1.7
	c0.1-0.6,0.3-1.1,0.6-1.6L21.4,158.3z"/>
<path class="st0" d="M18.3,149.9V148l4.3-0.1l-0.1-5l-4.3,0.1l0-1.9l10.7-0.3v1.9l-4.8,0.1l0.1,5l4.8-0.1v1.9L18.3,149.9z"/>
<path class="st0" d="M18.5,133.3l0.2-1.9l10.7,0.9l-0.2,1.9L18.5,133.3z"/>
<path class="st0" d="M19.5,123.7l0.6-3.4c0.1-0.6,0.3-1.1,0.5-1.6c0.2-0.4,0.4-0.8,0.8-1.2c0.3-0.3,0.7-0.5,1.1-0.6
	c0.5-0.1,1-0.1,1.5,0c0.5,0.1,1,0.3,1.4,0.6c0.4,0.3,0.6,0.6,0.8,1.1c0.2,0.4,0.3,0.9,0.3,1.4c0,0.5,0,1.1-0.1,1.6l-0.3,1.5l4.4,0.8
	l-0.4,1.9L19.5,123.7z M24.7,121.4c0.1-0.3,0.1-0.6,0.1-0.9c0-0.3,0-0.5-0.1-0.8c-0.1-0.2-0.2-0.4-0.4-0.6c-0.2-0.2-0.5-0.3-0.7-0.3
	c-0.5-0.1-1,0.1-1.3,0.5c-0.2,0.2-0.3,0.4-0.4,0.7c-0.1,0.3-0.1,0.5-0.2,0.8l-0.2,1.4l3,0.6L24.7,121.4z"/>
<path class="st0" d="M25.4,101l0.6-1.8l10.1,3.7l-0.7,1.8L25.4,101z"/>
<path class="st0" d="M28.9,91.9l1.1-2.3l9.4-0.9l0,0l-7.2-3.6l0.8-1.7l9.6,4.8l-1.1,2.2L32,91.3l0,0l7.4,3.7l-0.8,1.7L28.9,91.9z"/>
<path class="st0" d="M42.4,69.1l4.5-5.5l1.3,1l-3.3,4l2.1,1.8l3.1-3.8l1.2,1l-3.1,3.8l2.4,1.9l3.5-4.2l1.3,1.1l-4.7,5.7L42.4,69.1z"
	/>
<path class="st0" d="M51.8,57.9l1.8-1.8l9.2,2.2l0,0l-5.6-5.8l1.4-1.3l7.5,7.7l-1.7,1.7l-9.4-2.4l0,0l5.8,5.9l-1.4,1.3L51.8,57.9z"
	/>
<path class="st0" d="M64.7,46.1l5.7-4.3l1,1.3l-4.2,3.1l1.6,2.2l3.9-3l1,1.3l-3.9,3l1.8,2.4l4.3-3.2l1,1.4l-5.9,4.4L64.7,46.1z"/>
<path class="st0" d="M76.8,37.6l3.2-1.9c0.4-0.2,0.9-0.4,1.3-0.6c0.4-0.1,0.9-0.2,1.4-0.2c0.4,0,0.9,0.2,1.2,0.4
	c0.4,0.3,0.8,0.6,1,1.1c0.4,0.6,0.5,1.3,0.4,2c-0.2,0.7-0.5,1.3-1.1,1.8l4.8,2.7l-2,1.1l-4.4-2.7L81.6,42l2.3,4l-1.7,1L76.8,37.6z
	 M82.2,39.9c0.2-0.1,0.5-0.3,0.7-0.5c0.2-0.2,0.4-0.3,0.5-0.6c0.1-0.2,0.2-0.4,0.2-0.7c0-0.3-0.1-0.6-0.2-0.8
	c-0.1-0.2-0.3-0.4-0.5-0.5c-0.2-0.1-0.4-0.1-0.7-0.1c-0.2,0-0.5,0.1-0.7,0.1c-0.2,0.1-0.5,0.2-0.7,0.3l-1.5,0.9l1.5,2.6L82.2,39.9z"
	/>
<path class="st0" d="M102.7,36.4c-0.4,0.5-0.9,0.9-1.4,1.2c-0.6,0.4-1.3,0.7-2,1c-0.7,0.3-1.5,0.5-2.3,0.6c-0.7,0-1.5-0.1-2.2-0.4
	c-0.7-0.3-1.3-0.7-1.8-1.2c-0.6-0.6-1-1.3-1.3-2c-0.3-0.7-0.5-1.5-0.5-2.3c0-0.7,0.2-1.4,0.5-2.1c0.3-0.6,0.7-1.2,1.3-1.7
	c0.6-0.5,1.3-1,2-1.2c0.7-0.3,1.5-0.5,2.3-0.5c0.7-0.1,1.4,0,2,0.3l-0.7,1.8c-0.4-0.2-0.9-0.3-1.3-0.3c-0.5,0-1.1,0.1-1.6,0.3
	c-0.5,0.2-0.9,0.5-1.3,0.9c-0.3,0.3-0.6,0.8-0.8,1.2c-0.2,0.5-0.2,0.9-0.2,1.4c0,0.5,0.1,1,0.3,1.5c0.2,0.5,0.5,1,0.8,1.4
	c0.3,0.4,0.7,0.7,1.2,0.9c0.4,0.2,0.9,0.3,1.4,0.3c0.5,0,1.1-0.1,1.6-0.3c0.7-0.3,1.3-0.7,1.8-1.2l-1-2.5l-2.1,0.8l-0.6-1.5l3.8-1.5
	L102.7,36.4z"/>
<path class="st0" d="M109.8,30l-5.5-4.8l2.3-0.6l3.8,3.7l1.5-5.1l2.1-0.6l-2.3,6.9l1.2,4.5l-1.8,0.5L109.8,30z"/>
<path class="st0" d="M136.8,27.8l2.7,2.4l-2.4,0.1l-1.3-1.1c-0.3,0.4-0.7,0.8-1.2,1.1c-0.6,0.3-1.2,0.5-1.9,0.5
	c-0.5,0-0.9,0-1.4-0.1c-0.4-0.1-0.8-0.3-1.2-0.5c-0.3-0.2-0.6-0.6-0.9-0.9c-0.2-0.4-0.4-0.9-0.4-1.3c0-0.4,0-0.7,0.1-1.1
	c0.1-0.3,0.3-0.6,0.5-0.9c0.2-0.3,0.4-0.5,0.7-0.7c0.3-0.2,0.5-0.4,0.8-0.5c-0.4-0.3-0.7-0.7-0.9-1.1c-0.2-0.4-0.4-0.8-0.4-1.3
	c0-0.4,0-0.8,0.2-1.2c0.1-0.3,0.4-0.6,0.6-0.9c0.3-0.2,0.6-0.4,0.9-0.5c0.3-0.1,0.7-0.2,1.1-0.2c0.4,0,0.8,0,1.1,0.1
	c0.4,0.1,0.7,0.2,1,0.4c0.3,0.2,0.5,0.5,0.7,0.8c0.2,0.3,0.3,0.7,0.3,1.1c0,0.3,0,0.7-0.1,1c-0.1,0.3-0.2,0.6-0.4,0.8
	c-0.2,0.3-0.4,0.5-0.7,0.7c-0.3,0.2-0.5,0.4-0.8,0.5l1.9,1.7l1.1-2l2.1-0.1L136.8,27.8z M132.1,25.9c-0.2,0.1-0.4,0.2-0.6,0.3
	c-0.2,0.1-0.3,0.2-0.4,0.4c-0.1,0.2-0.2,0.3-0.3,0.5c-0.1,0.2-0.1,0.5-0.1,0.7c0,0.2,0.1,0.5,0.2,0.7c0.1,0.2,0.3,0.4,0.4,0.5
	c0.2,0.1,0.4,0.2,0.6,0.3c0.2,0.1,0.4,0.1,0.6,0.1c0.4,0,0.8-0.1,1.1-0.4c0.3-0.2,0.6-0.5,0.8-0.9L132.1,25.9z M132.7,21.1
	c-0.3,0-0.6,0.2-0.9,0.4c-0.2,0.2-0.3,0.6-0.3,0.9c0,0.3,0.1,0.6,0.3,0.9c0.2,0.3,0.5,0.6,0.8,0.8c0.2-0.1,0.4-0.2,0.6-0.3
	c0.2-0.1,0.3-0.3,0.5-0.4c0.1-0.1,0.2-0.3,0.3-0.5c0.1-0.2,0.1-0.4,0.1-0.6c0-0.3-0.2-0.6-0.4-0.8C133.3,21.2,133,21.1,132.7,21.1
	L132.7,21.1z"/>
<path class="st0" d="M154.5,20.3l7,1l-0.2,1.6l-5.1-0.7l-0.4,2.7l4.9,0.7l-0.2,1.6l-4.9-0.7l-0.4,3l5.4,0.7l-0.2,1.7l-7.3-1
	L154.5,20.3z"/>
<path class="st0" d="M169.1,22.7l2.4,0.7l2.7,9.1l0,0l2.1-7.7l1.8,0.5l-2.8,10.3l-2.3-0.6l-2.7-9.3l0,0l-2.2,8l-1.8-0.5L169.1,22.7z
	"/>
<path class="st0" d="M184.6,27.4l2,0.8L186,37h0.1l6-6.4l1.9,0.8l-8.2,8.2l-1.5-0.6L184.6,27.4z"/>
<path class="st0" d="M199.6,34.4l1.7,0.9l-5.2,9.4l-1.7-0.9L199.6,34.4z"/>
<path class="st0" d="M207.9,39.3l3.1,2.1c0.4,0.3,0.8,0.6,1.1,1c0.3,0.3,0.6,0.7,0.7,1.2c0.2,0.4,0.2,0.9,0.2,1.3
	c-0.1,0.5-0.3,1-0.6,1.4c-0.4,0.6-0.9,1-1.6,1.2c-0.7,0.1-1.4,0.1-2-0.2l-0.4,5.5l-1.9-1.3l0.5-5.2l-1.2-0.8l-2.6,3.7l-1.6-1.1
	L207.9,39.3z M208.1,45.1c0.2,0.2,0.5,0.3,0.7,0.4c0.2,0.1,0.5,0.2,0.7,0.2c0.2,0,0.5,0,0.7-0.1c0.3-0.1,0.5-0.3,0.6-0.5
	c0.2-0.2,0.2-0.5,0.2-0.7c0-0.2-0.1-0.4-0.2-0.7c-0.1-0.2-0.3-0.4-0.4-0.6c-0.2-0.2-0.4-0.3-0.6-0.5l-1.4-1l-1.7,2.5L208.1,45.1z"/>
<path class="st0" d="M216.2,51.9c0.5-0.6,1.2-1.1,1.9-1.4c0.6-0.3,1.4-0.5,2.1-0.5c0.7,0,1.4,0.1,2.1,0.4c0.7,0.3,1.4,0.7,2,1.3
	c0.6,0.5,1.1,1.2,1.4,1.8c0.3,0.6,0.5,1.3,0.6,2.1c0,0.7-0.1,1.4-0.3,2.1c-0.3,0.7-0.7,1.4-1.2,2c-0.5,0.6-1.2,1.1-1.9,1.4
	c-0.7,0.3-1.4,0.5-2.1,0.5c-0.7,0-1.5-0.1-2.1-0.4c-1.5-0.6-2.7-1.7-3.4-3.1c-0.7-1.3-0.7-2.8-0.2-4.2
	C215.3,53.1,215.7,52.5,216.2,51.9z M217.7,53.3c-0.4,0.4-0.7,0.8-0.9,1.3c-0.2,0.5-0.3,0.9-0.3,1.4c0,0.5,0.1,1,0.3,1.4
	c0.2,0.5,0.5,0.9,0.9,1.2c0.4,0.4,0.8,0.6,1.3,0.8c0.5,0.2,0.9,0.2,1.4,0.2c0.5,0,1-0.2,1.4-0.4c0.9-0.5,1.7-1.3,2.1-2.3
	c0.2-0.5,0.3-0.9,0.3-1.4c0-0.5-0.1-1-0.3-1.4c-0.2-0.5-0.5-0.9-0.9-1.2c-0.4-0.4-0.8-0.6-1.3-0.8c-0.5-0.2-0.9-0.2-1.4-0.2
	c-0.5,0-1,0.2-1.4,0.4C218.5,52.6,218.1,52.9,217.7,53.3z"/>
<path class="st0" d="M233.5,61.3l1.6,2l-3.1,8.9l0,0l6.2-5.1l1.2,1.5l-8.3,6.8l-1.5-1.9l3.2-9.2l0,0l-6.4,5.2l-1.2-1.5L233.5,61.3z"
	/>
<path class="st0" d="M244.2,75.3l1.5,2.6l-5.2,6.3l0,0l8-1.5l1.5,2.6l-9.2,5.4l-1-1.6l7.4-4.4l0,0l-9.1,1.6l-0.7-1.2l5.8-7.1l0,0
	l-7.4,4.4l-0.9-1.6L244.2,75.3z"/>
<path class="st0" d="M253.5,92.6l2.7,6.6l-1.5,0.6l-2-4.8l-2.5,1l1.9,4.6l-1.5,0.6l-1.9-4.6l-2.8,1.2l2.1,5.1l-1.6,0.6l-2.8-6.8
	L253.5,92.6z"/>
<path class="st0" d="M258.7,106.5l0.6,2.4l-6.5,6.9l0,0l7.8-2l0.5,1.8l-10.4,2.7l-0.6-2.3l6.7-7l0,0l-8,2.1l-0.5-1.8L258.7,106.5z"
	/>
<path class="st0" d="M261.2,125.8l-0.4-3.3l1.7-0.2l1.1,8.4l-1.6,0.2l-0.4-3.3l-9,1.2l-0.2-1.9L261.2,125.8z"/>
<path class="st0" d="M264,139.9v1.6l-10.6,4.8v-2.2l2.4-1l-0.1-4.6l-2.5-0.9v-2.1L264,139.9z M257.4,142.4l4.3-1.7l-4.4-1.6
	L257.4,142.4z"/>
<path class="st0" d="M263.6,152.7l-0.2,1.9l-9-0.9l-0.5,4.5l-1.7-0.2l0.7-6.4L263.6,152.7z"/>
<path class="st0" d="M259.9,174.3l-1.1,3.6c-0.2,0.7-0.5,1.3-0.9,1.9c-0.4,0.6-0.8,1.1-1.4,1.6c-0.6,0.4-1.3,0.7-2,0.8
	c-0.8,0.1-1.7,0-2.5-0.2c-0.8-0.2-1.6-0.6-2.2-1.2c-0.5-0.5-0.9-1.1-1.2-1.8c-0.3-0.7-0.4-1.4-0.4-2.1c0-0.7,0.1-1.4,0.3-2.1
	l1.1-3.6L259.9,174.3z M250.3,174.9c-0.2,0.5-0.2,1-0.3,1.5c0,0.5,0,1,0.2,1.5c0.2,0.5,0.4,0.9,0.8,1.3c0.5,0.4,1,0.7,1.6,0.9
	c0.6,0.2,1.3,0.3,1.9,0.2c0.5-0.1,1-0.3,1.4-0.6c0.4-0.3,0.7-0.7,0.9-1.1c0.2-0.4,0.4-0.9,0.6-1.4l0.5-1.5l-7.1-2.2L250.3,174.9z"/>
<path class="st0" d="M254.3,190.5l-3,6.5l-1.5-0.7l2.2-4.7l-2.5-1.1l-2,4.5l-1.5-0.7l2.1-4.5l-2.8-1.3l-2.3,5l-1.5-0.7l3.1-6.7
	L254.3,190.5z"/>
<path class="st0" d="M243,207.2c0.7-0.1,1.4-0.6,1.8-1.2c0.1-0.2,0.2-0.4,0.3-0.6c0.1-0.2,0.1-0.4,0.1-0.7c0-0.2-0.1-0.4-0.1-0.6
	c-0.1-0.2-0.3-0.4-0.5-0.5c-0.2-0.1-0.4-0.2-0.6-0.2c-0.2,0-0.4,0-0.6,0.1c-0.2,0.1-0.4,0.2-0.6,0.4c-0.2,0.2-0.4,0.4-0.7,0.6
	s-0.6,0.5-0.9,0.7c-0.3,0.2-0.6,0.4-1,0.6c-0.4,0.2-0.8,0.2-1.2,0.2c-0.5,0-0.9-0.2-1.3-0.4c-0.5-0.3-0.8-0.6-1.1-1.1
	c-0.3-0.4-0.4-0.8-0.5-1.3c-0.1-0.5,0-0.9,0.1-1.4c0.1-0.5,0.3-1,0.6-1.4c0.4-0.6,0.8-1.1,1.4-1.6c0.5-0.4,1.2-0.7,1.8-0.8l0.4,1.8
	c-0.5,0-0.9,0.2-1.3,0.4c-0.4,0.2-0.7,0.6-0.9,0.9c-0.1,0.2-0.2,0.4-0.3,0.6c-0.1,0.2-0.1,0.5-0.1,0.7c0,0.2,0.1,0.4,0.2,0.6
	c0.1,0.2,0.3,0.4,0.5,0.5c0.2,0.1,0.5,0.2,0.7,0.2c0.2,0,0.5-0.1,0.7-0.2c0.3-0.1,0.5-0.3,0.7-0.5c0.2-0.2,0.5-0.4,0.8-0.6
	s0.5-0.4,0.8-0.6c0.3-0.2,0.6-0.3,0.9-0.4c0.3-0.1,0.7-0.1,1.1-0.1c0.4,0.1,0.8,0.2,1.2,0.4c0.4,0.2,0.8,0.6,1,1
	c0.2,0.4,0.3,0.8,0.4,1.3c0,0.5,0,0.9-0.2,1.4c-0.1,0.5-0.3,0.9-0.6,1.3c-0.3,0.5-0.7,0.9-1.1,1.3c-0.4,0.4-0.9,0.6-1.5,0.8
	L243,207.2z"/>
<path class="st0" d="M240.1,215.4l-1.1,1.5l-8.6-6.4l1.1-1.5L240.1,215.4z"/>
<path class="st0" d="M220.2,223c0.2-0.6,0.5-1.2,0.8-1.7c0.4-0.6,0.9-1.2,1.4-1.8c0.5-0.6,1.2-1.1,1.9-1.5c1.3-0.7,2.9-0.7,4.2-0.2
	c0.7,0.3,1.4,0.7,2,1.2c0.6,0.5,1.1,1.2,1.4,1.9c0.3,0.7,0.5,1.4,0.5,2.1c0,0.7-0.2,1.4-0.4,2.1c-0.3,0.7-0.7,1.4-1.3,2
	c-0.5,0.6-1.2,1.1-1.9,1.5c-0.6,0.3-1.2,0.5-1.9,0.6l-0.1-1.9c0.5,0,0.9-0.1,1.4-0.3c0.5-0.2,1-0.6,1.3-1c0.4-0.4,0.6-0.8,0.8-1.3
	c0.2-0.5,0.2-0.9,0.2-1.4c0-0.5-0.2-1-0.4-1.4c-0.2-0.5-0.6-0.9-0.9-1.2c-0.4-0.4-0.8-0.7-1.3-0.9c-0.5-0.2-0.9-0.3-1.4-0.3
	c-0.5,0-1,0.1-1.4,0.3c-0.5,0.2-0.9,0.6-1.3,1c-0.5,0.5-0.9,1.1-1.2,1.8l2,1.9l1.5-1.7l1.1,1.1l-2.8,3L220.2,223z"/>
<path class="st0" d="M221.8,235.4l-2,1.6l-8.9-3.1l0,0l5,6.3l-1.5,1.2l-6.7-8.3l1.9-1.5l9.2,3.3l0,0l-5.2-6.4l1.5-1.2L221.8,235.4z"
	/>
<path class="st1" d="M220.1,158c3.5-1.9,9.8-8.3,8.2-14s-11.4,1.1-13.3-1.9s17.6-15.3,11.4-25.9c-2.4-4.2-4.1,0-7.6-2.2
	s3.1-23.2-11.2-18.5c-7.2,2.4-2.4,15.8-5.2,17.7s-4.9-13.1-10.9-6.3s3.5,21.2,0.8,25.9s-9.5-11.2-13.9-4.9s4.9,28.8,1.4,34
	s-7.6-11.7-11.7-8.4s4.4,24.2,1.6,37.3c-0.2,1-1.6,4.9-2,5.8c4.4-3.8,10.2-11,13.1-14.6c7.1-8.9,10.2-16.6,11.5-16
	s-20.6,32.4-27.5,37.5c-3.4,2.6-6.3,4.8-8.4,6.1c-3.9,3.4-8,6.7-12.2,9.6c0,0,2.4-16.8,3.5-20.6s19.6-16.3,19.6-22.3
	s-7.9-7.3-10.4-10.1s5.2-12.6,7.9-17.6c4-7.3,12.5-20.2,9-26.8s-12.2,1.6-14.7,0.3s3-13.6,5.7-19.6s3.3-16.9-1.1-21.8
	s-10.3,7.6-14.2,5.2s7.4-32.9-9.8-31.6s-1.8,30.4-8.4,31.6c-4.7,0.8-8.9-10.1-15.2-3.3c-9.4,10.2,11.4,35.1,6.5,39.2
	s-10-6.5-14.7,3.5c-7,14.9,18.5,32.4,18.2,37.5c-0.4,9.2-8.6,0.2-11.1,10.3s16.3,21.2,20.6,26.4c2.5,3.1,4,19.9,4,19.9
	s-24.9-19.1-31.3-24.8c-11.1-10.1-20.2-26.2-19.1-27.7s6.3,11,14.4,18.6c9.8,9.3,16.9,16.4,20.2,18.9c-4.3-6.1-11.5-17.2-14.4-21.7
	c-4.4-6.8,6-28.9,1.9-33.5s-10.1,8.4-12,6.8s1.1-7.9,1.9-12.8s1.6-17.7-1.4-20.4s-9.2,12.5-11.1,10.6s6-24.5-0.3-27.8
	s-7.4,11.1-9.8,10.9s1.9-19.6-7.3-20.1s-7.9,15.5-8.2,17.7s-4.6-0.3-6.3,0.8s-2.3,7.2-0.3,11.2c2.4,4.9,13.3,13.3,9.8,16.6
	s-9.5-4.6-12,4.4s19.3,17.1,18,20.4s-9.6-3-11.4,2.2c-3,8.2,3,15,14.7,21.2s29.4,10.3,36.5,13.3s15.5,10.3,21.5,14.4
	s4.6,10.1,7.6,10.3s4.6-7.1,16.3-18s29.9-14.2,42.4-16.9s21.2-18.5,20.1-24.2s-12,0-12.5-3.3S216.6,159.9,220.1,158z"/>
<polygon class="st0" points="84.1,157.5 84.1,108.5 74.8,108.5 74.8,166.1 100.4,166.1 100.4,157.5 "/>
<polygon class="st0" points="135.2,117.1 135.2,108.5 117.1,108.5 108.2,108.5 107.7,108.5 107.7,166.1 108.2,166.1 117.1,166.1 
	135.2,166.1 135.2,157.5 117.1,157.5 117.1,140.5 130.6,140.5 130.6,131.9 117.1,131.9 117.1,117.1 "/>
<polygon class="st2" points="113.5,113.1 117.1,117.1 135.2,117.1 130.4,113.1 "/>
<polygon class="st2" points="117.1,140.5 130.6,140.5 126.3,136.3 113.6,136.3 "/>
<path class="st2" d="M131.9,161.8l3.3,4.3h-27.5v-57.6l5.6,4.4v49.2C113.2,162.1,131.6,162,131.9,161.8z"/>
<polygon class="st0" points="171.3,117.1 171.3,108.5 153.2,108.5 144.3,108.5 143.8,108.5 143.8,166.1 144.3,166.1 153.2,166.1 
	171.3,166.1 171.3,157.5 153.2,157.5 153.2,140.5 166.7,140.5 166.7,131.9 153.2,131.9 153.2,117.1 "/>
<polygon class="st2" points="149.9,113.1 153.2,117.1 171.3,117.1 166.5,113.1 "/>
<polygon class="st2" points="153.2,140.5 166.7,140.5 162.4,136.3 149.7,136.3 "/>
<polygon class="st2" points="168.1,162.1 171.3,166.1 143.8,166.1 143.8,108.5 149.4,113 149.4,162.1 "/>
<polygon class="st2" points="79.4,112.6 79.4,161.3 96.6,161.3 100.4,166.1 74.8,166.1 74.8,108.5 "/>
<path class="st3" d="M198,161.3h-15.6v-48.9H198c3.7,0,6.7,3,6.7,6.7v35.4C204.7,158.3,201.7,161.3,198,161.3z M183.4,160.3H198
	c3.2,0,5.7-2.6,5.7-5.7v-35.4c0-3.2-2.6-5.7-5.7-5.7h-14.6L183.4,160.3z"/>
<path class="st4" d="M191,119.6l-2.6-2.5v39.7h8.2c0.9,0,1.8-0.4,2.5-1.1l-2.8-3.1L191,119.6z"/>
<path class="st4" d="M216.8,118.2c0.4,14.6,0.8,33.4,0.8,33.4l-4.8,5.4h1.7c2.2-0.1,3.9-2,3.8-4.2c0,0,0,0,0,0v-31.3
	C218.2,120.3,217.7,119.1,216.8,118.2z"/>
<path class="st0" d="M183.1,160.7h15.1c1.5,0,2.9-0.5,4.1-1.5l-3.1-3.4c-0.7,0.7-1.6,1.1-2.5,1.1h-8.2v-39.7l-4.4-4.3h-0.9
	L183.1,160.7z"/>
<path class="st2" d="M198.1,160.7H184v-47.9l0,0l-4.6-4.4v57.1h17.2c3.1,0,6.1-1.2,8.4-3.4l-2.7-3
	C201.1,160.1,199.7,160.7,198.1,160.7z"/>
<path class="st2" d="M188.4,117.1h8.2c2.2,0.1,3.9,2,3.8,4.2c0,0,0,0,0,0v31.3c0,1.2-0.5,2.3-1.3,3.2l3.1,3.4
	c1.4-1.2,2.2-2.9,2.2-4.7V119c0-3.4-2.8-6.2-6.2-6.2l0,0H184L188.4,117.1L188.4,117.1z"/>
<path class="st0" d="M208.4,117.3c-1.6-5.2-6.4-8.7-11.8-8.8l-17.2-0.2l4.6,4.5h14.2c3.4,0,6.2,2.8,6.2,6.2c0,0,0,0,0,0v35.4
	c0,1.8-0.8,3.5-2.2,4.7l2.7,3c1.5-1.4,2.6-3.2,3.3-5.1c0.5-1.4,0.7-2.9,0.8-4.4v-31.3C209,119.9,208.8,118.6,208.4,117.3z"/>
<path class="st0" d="M88.4,192l2.7-2.1c0.4-0.3,0.9-0.6,1.4-0.9c0.4-0.2,0.9-0.3,1.3-0.3c0.4,0,0.8,0.1,1.2,0.3
	c0.9,0.5,1.5,1.3,1.7,2.3c0.1,0.4,0,0.9-0.1,1.3c-0.2,0.4-0.4,0.9-0.7,1.2c-0.3,0.4-0.7,0.8-1.2,1.1l-1.2,0.9l2.6,3.5l-1.5,1.1
	L88.4,192z M93.7,193.7c0.2-0.2,0.5-0.4,0.7-0.6c0.2-0.2,0.3-0.4,0.4-0.6c0.1-0.2,0.1-0.4,0.1-0.7c0-0.3-0.1-0.5-0.3-0.7
	c-0.1-0.2-0.4-0.4-0.6-0.5c-0.2-0.1-0.5-0.1-0.7-0.1c-0.2,0.1-0.5,0.1-0.7,0.3c-0.2,0.1-0.5,0.3-0.7,0.5l-1.1,0.8l1.8,2.4
	L93.7,193.7z"/>
<path class="st0" d="M100.8,183.6l1.7-0.8l3.9,7.9l4-2l0.7,1.5l-5.7,2.8L100.8,183.6z"/>
<path class="st0" d="M116.3,177.3l1.6-0.4l7.2,8.9l-2.1,0.6l-1.6-2.1l-4.4,1.2l-0.3,2.6l-2,0.6L116.3,177.3z M120.3,182.9l-2.7-3.7
	l-0.4,4.6L120.3,182.9z"/>
<path class="st0" d="M130.4,176.1l-3.2,0.3l-0.2-1.6l8.3-0.8l0.2,1.6l-3.2,0.3l0.9,8.8l-1.9,0.2L130.4,176.1z"/>
<path class="st0" d="M142.1,174l1.9,0.1l-0.4,10.5l-1.9-0.1L142.1,174z"/>
<path class="st0" d="M152,174.8l2.4,0.5l3.2,8.7l0,0l1.6-7.7l1.8,0.4l-2,10.3l-2.3-0.5l-3.2-9l0,0l-1.6,7.9l-1.8-0.4L152,174.8z"/>
<path class="st0" d="M174.1,188.8c-0.2,0.5-0.6,1-1,1.4c-0.4,0.4-0.8,0.6-1.3,0.8c-0.5,0.2-1,0.2-1.6,0.2c-0.6,0-1.1-0.2-1.6-0.4
	c-0.5-0.2-1-0.5-1.4-0.9c-0.4-0.4-0.7-0.8-0.9-1.3c-0.2-0.5-0.3-1-0.3-1.6c0-0.6,0.2-1.2,0.4-1.7l2.7-6.1l1.7,0.8l-2.7,6
	c-0.1,0.3-0.2,0.6-0.3,0.9c-0.1,0.3-0.1,0.6,0,0.9c0.1,0.3,0.2,0.6,0.4,0.8c0.3,0.3,0.6,0.5,0.9,0.7c0.3,0.2,0.7,0.3,1.1,0.2
	c0.3,0,0.6-0.1,0.9-0.2c0.3-0.1,0.5-0.3,0.7-0.6c0.2-0.2,0.4-0.5,0.5-0.8l2.7-6l1.7,0.8L174.1,188.8z"/>
<path class="st0" d="M184.2,187l2.3,1.8l-2.4,7.6l0,0l6.7-4.2l2.3,1.8l-6.4,8.3l-1.5-1.1l5.2-6.7l0,0l-7.7,4.7l-1-0.8l2.7-8.6l0,0
	l-5.2,6.7l-1.4-1.1L184.2,187z"/>
</svg>
